1 10 20
100 200 125
201 210 89
900 1000 174
96899 65229 351
48719 4331 324
52138 20747 324
42222 72920 340
47425 48412 283
96595 97015 253
49875 24518 324
22782 21867 269
29903 93394 351
38116 19899 324
28383 60425 340
74664 58249 335
44052 690 324
74007 18532 340
95211 86274 333
57911 18141 340
81330 55175 351
68443 4046 340
42594 73916 340
78583 78329 307
74612 69358 325
54652 64067 335
60795 85588 351
30457 49571 324
25543 33917 308
3491 93952 351
32342 25278 308
10159 89136 351
24958 60930 340
42168 89692 351
93650 13187 351
92634 88756 333
29603 86665 351
92996 77158 338
10853 51546 324
96560 79099 333
69362 50825 340
10804 86321 351
6327 39871 324
32711 48629 324
14007 72675 340
24073 38131 324
50873 74435 340
48681 45841 314
18430 46971 324
5301 51409 324
35036 18093 311
30883 84780 351
20065 66663 340
34940 56646 340
32965 23641 308
10611 86410 351
84917 25826 351
43031 66993 340
58804 65884 335
45107 15379 324
52862 15952 340
10189 43153 324
1614 85929 351
88025 71190 351
11746 20666 279
2452 94618 351
30998 40876 324
65607 58790 335
93193 59999 351
99532 44032 351
5569 95568 351
70327 5288 340
15201 62089 340
62359 96275 351
49880 36781 314
40782 26104 324
92614 93669 315
2927 50304 324
88260 10814 351
77457 20074 351
35878 45026 306
61242 80655 351
13423 91721 351
11975 27087 308
661 72440 340
48854 8032 324
67451 40110 340
46072 55456 340
24015 71349 340
59616 7749 340
40380 55718 340
26958 66947 340
49712 21413 324
3934 4435 215
58600 56564 304
94051 94518 284
65653 80799 351
45694 24134 324
562 62244 340
53600 30866 340
69756 13962 340
4490 39089 324
92469 95698 328
98508 23929 351
64951 42674 340
17704 88218 351
35371 91564 351
34230 52152 324
47564 13774 324
21917 1049 279
92496 12920 351
21358 84604 351
29936 65679 340
7919 66161 340
52408 29096 324
92331 83626 333
77006 10043 340
46516 2714 324
85413 80239 320
43454 18772 324
57599 9233 340
54256 89624 351
53554 61022 335
1946 78057 351
850670 851113 357
978562 976960 383
319662 322868 371
560495 559981 359
831101 831011 251
784445 782843 331
859271 859331 295
998394 998498 277
975465 975228 228
687538 680880 398
786313 786051 269
780568 780732 300
363174 361163 361
261481 261858 288
