8324 5031 262
4127 9256 262
8232 7735 252
1417 1009 182
123 470 144
2469 6438 262
299 290 118
2037 6941 262
3222 2519 217
280 572 144
6936 7553 257
148 9508 262
4562 1545 238
2589 1447 209
2612 8647 262
1175 8872 262
5458 7730 262
232 3044 217
1672 2162 180
508 8293 262
8612 9239 247
6308 5888 262
8002 3185 262
3995 4431 215
5792 5358 236
1007 3731 238
6274 9356 260
3598 1208 217
8021 5031 262
1889 4902 238
6793 1869 262
7956 4299 262
2135 9258 262
2103 1669 180
2676 8681 262
2726 3636 217
986 1514 182
9174 1415 262
5633 3678 238
1103 4094 238
2731 7349 262
9999 7457 260
5351 5217 192
9583 3221 262
9221 8709 247
9376 7165 260
1265 3659 217
3035 3865 238
7252 4626 262
818 2093 182
712 3621 217
3362 1139 217
8068 20 262
9023 1478 262
6806 8917 257
6919 6444 244
4480 4480 21
2190 641 182
6410 3575 262
1863 3645 217
647 5128 238
8268 3980 262
5848 2417 238
955 6450 262
311 2715 209
9714 1747 262
5336 7339 262
7899 3691 262
7929 5187 262
3377 4676 238
2052 6674 262
3389 854 217
9658 9351 198
1575 943 182
390 5263 238
4491 1724 238
8250 6906 257
39 5820 238
9053 5334 262
4982 2603 238
6322 1272 262
382 960 179
1446 1472 172
7313 2768 262
7823 1703 262
4202 5014 215
7924 3263 262
3763 8042 262
1861 3736 238
5529 504 238
9649 6317 260
8611 1695 262
8634 2937 262
2839 9123 262
267 7027 262
1960 1305 180
6781 3686 262
7364 510 262
8854 4743 262
9293 1776 262
6579 4 262
9594 699 262
436 1462 182
67 8984 262
1330 5585 238
4927 5698 236
4977 2174 238
1597 1365 172
7051 8876 252
1803 548 182
8349 3261 262
4348 5789 236
9395 9369 185
8555 8504 203
8143 9941 260
9273 5270 262
3290 5295 238
390 8903 262
606 6592 262
1623 5600 238
3578 6519 262
6792 1876 262
2169 7998 262
1569 3537 217
379 6342 262
3723 6725 262
4364 6670 262
2505 6524 262
7488 7633 208
2180 4983 238
8841 670 262
8648 2728 262
4207 353 238
6395 7228 257
9946 7573 260
8640 9370 260
1548 4363 238
3483 4741 238
719 1817 182
3123 3102 155
5401 5012 192
7058 7129 164
6333 7264 257
4297 8310 262
7825 4968 262
3161 6724 262
9120 4371 262
3868 7889 262
4746 9398 262
7866 460 262
594 3968 238
2114 3017 217
1070 566 179
9087 8244 247
1712 5218 238
2905 1535 209
3400 5479 238
4668 8814 262
3995 9552 262
7407 1753 262
7100 3410 262
3557 5361 238
4210 4862 215
89 5203 238
5036 474 238
3283 1247 217
580 747 171
4801 7874 262
5657 659 238
6858 2684 262
8789 3159 262
6459 6653 244
67 2766 209
5193 4275 215
5671 3191 238
6156 5793 218
5140 2917 238
5407 8473 262
6897 740 262
8274 8693 234
3209 8883 262
529 3130 217
690 7689 262
80 6295 262
8921 172 262
2907 4002 238
6421 9433 260
6311 3604 262
9419 8618 260
6013 517 238
323 5532 238
7403 3119 262
9492 9070 260
5917 9745 262
609 6075 238
4642 632 238
6529 7436 257
4034 702 238
8939 3272 262
3296 4191 238
