1 10 20
100 200 125
201 210 89
900 1000 174
1 1 1
270 927 179
986 1720 182
2 4 8
9 15 20
16 26 24
23 37 112
30 48 110
37 59 113
44 70 113
51 81 116
58 92 116
65 103 119
72 114 119
79 125 119
86 136 122
93 147 122
100 158 122
107 169 122
114 180 125
121 191 125
128 202 125
135 213 125
142 224 125
149 235 128
156 246 128
163 257 128
170 268 128
177 279 128
184 290 128
191 301 128
198 312 128
205 323 131
212 334 144
219 345 144
226 356 144
233 367 144
240 378 144
247 389 144
254 400 144
261 411 144
268 422 144
275 433 144
282 444 144
289 455 144
296 466 144
303 477 144
310 488 144
317 499 144
324 510 144
331 521 142
338 532 142
345 543 142
352 554 142
359 565 142
366 576 142
373 587 142
380 598 142
387 609 142
394 620 142
401 631 142
408 642 142
415 653 145
422 664 145
429 675 145
436 686 145
443 697 145
450 708 171
457 719 171
464 730 171
471 741 171
478 752 171
485 763 171
492 774 171
499 785 171
506 796 171
513 807 171
520 818 171
527 829 171
534 840 171
541 851 171
548 862 171
555 873 179
562 884 179
569 895 179
576 906 179
583 917 179
590 928 179
597 939 179
604 950 179
611 961 179
618 972 179
625 983 179
632 994 179
639 1005 179
646 1016 179
653 1027 179
660 1038 179
667 1049 179
674 1060 179
681 1071 179
688 1082 179
695 1093 179
702 1104 179
709 1115 179
716 1126 179
723 1137 179
730 1148 179
737 1159 179
744 1170 182
751 1181 182
758 1192 182
765 1203 182
772 1214 182
779 1225 182
786 1236 182
793 1247 182
800 1258 182
807 1269 182
814 1280 182
821 1291 182
828 1302 182
835 1313 182
842 1324 182
849 1335 182
856 1346 182
863 1357 182
870 1368 182
877 1379 182
884 1390 182
891 1401 182
898 1412 182
905 1423 182
912 1434 182
919 1445 182
926 1456 182
933 1467 182
940 1478 182
947 1489 182
954 1500 182
961 1511 182
968 1522 182
975 1533 182
982 1544 182
989 1555 182
996 1566 182
1003 1577 182
1010 1588 182
1017 1599 182
1024 1610 182
1031 1621 182
1038 1632 182
1045 1643 182
