.................
----------------------------------------------------------------------
Ran 17 tests in 0.271s

OK
Name             Stmts   Miss Branch BrPart  Cover   Missing
------------------------------------------------------------
Collatz.py          52      0     24      0   100%
TestCollatz.py      68      0      0      0   100%
------------------------------------------------------------
TOTAL              120      0     24      0   100%
